{
  "tags" : [ {
    "description" : "Rest service swagger documentation",
    "name" : "RestServiceVirtualController"
  } ],
  "basePath" : "/",
  "paths" : {
    "/moj/invoke/v1/Trips/{TripId}/Events" : {
      "x-WM-TAG" : "RestServiceVirtualController",
      "x-WM-BASE_PATH" : "/moj/invoke/v1/Trips/{TripId}/Events",
      "get" : {
        "x-WM-OPERATION_UID" : "7496f279-878f-4851-b024-3748bda35182",
        "tags" : [ "RestServiceVirtualController" ],
        "x-WM-METHOD_NAME" : "invoke",
        "x-WM-ACCESS_SPECIFIER" : "APP_ONLY",
        "parameters" : [ {
          "x-WM-FULLY_QUALIFIED_TYPE" : "java.lang.String",
          "items" : {
            "type" : "string"
          },
          "description" : "MojioAPIToken",
          "name" : "MojioAPIToken",
          "x-WM-EDITABLE" : true,
          "type" : "array",
          "required" : false,
          "in" : "header"
        }, {
          "description" : "limit",
          "name" : "limit",
          "x-WM-EDITABLE" : false,
          "type" : "string",
          "required" : false,
          "in" : "query"
        }, {
          "description" : "desc",
          "name" : "desc",
          "x-WM-EDITABLE" : false,
          "type" : "string",
          "required" : false,
          "in" : "query"
        }, {
          "description" : "sortBy",
          "name" : "sortBy",
          "x-WM-EDITABLE" : false,
          "type" : "string",
          "required" : false,
          "in" : "query"
        }, {
          "description" : "offset",
          "name" : "offset",
          "x-WM-EDITABLE" : false,
          "type" : "string",
          "required" : false,
          "in" : "query"
        }, {
          "name" : "TripId",
          "type" : "string",
          "required" : true,
          "in" : "path"
        } ],
        "consumes" : [ "text/xml" ],
        "responses" : {
          "200" : {
            "schema" : {
              "$ref" : "#/definitions/RootResponse"
            },
            "description" : "Success"
          }
        },
        "operationId" : "moj_RestServiceVirtualController-invoke"
      },
      "x-WM-RELATIVE_PATH" : ""
    }
  },
  "host" : "api.moj.io",
  "schemes" : [ "http", "https" ],
  "swagger" : "2.0",
  "definitions" : {
    "ConnectionLost" : {
      "x-WM-FULLY_QUALIFIED_NAME" : "moj.ConnectionLost",
      "x-WM-TAGS" : [ "RestServiceVirtualController" ]
    },
    "RootResponse" : {
      "x-WM-FULLY_QUALIFIED_NAME" : "moj.RootResponse",
      "x-WM-TAGS" : [ "RestServiceVirtualController" ],
      "properties" : {
        "Data" : {
          "x-WM-IS_LIST" : true,
          "items" : {
            "$ref" : "#/definitions/DataEntryItem"
          },
          "uniqueItems" : false,
          "type" : "array"
        },
        "PageSize" : {
          "format" : "int32",
          "type" : "integer"
        },
        "Offset" : {
          "format" : "int32",
          "type" : "integer"
        },
        "TotalRows" : {
          "format" : "int32",
          "type" : "integer"
        }
      }
    },
    "Altitude" : {
      "x-WM-FULLY_QUALIFIED_NAME" : "moj.Altitude",
      "x-WM-TAGS" : [ "RestServiceVirtualController" ]
    },
    "Accelerometer" : {
      "x-WM-FULLY_QUALIFIED_NAME" : "moj.Accelerometer",
      "x-WM-TAGS" : [ "RestServiceVirtualController" ]
    },
    "Deceleration" : {
      "x-WM-FULLY_QUALIFIED_NAME" : "moj.Deceleration",
      "x-WM-TAGS" : [ "RestServiceVirtualController" ]
    },
    "TimeIsApprox" : {
      "x-WM-FULLY_QUALIFIED_NAME" : "moj.TimeIsApprox",
      "x-WM-TAGS" : [ "RestServiceVirtualController" ]
    },
    "FuelEfficiency" : {
      "x-WM-FULLY_QUALIFIED_NAME" : "moj.FuelEfficiency",
      "x-WM-TAGS" : [ "RestServiceVirtualController" ]
    },
    "DataEntryItem" : {
      "x-WM-FULLY_QUALIFIED_NAME" : "moj.DataEntryItem",
      "x-WM-TAGS" : [ "RestServiceVirtualController" ],
      "properties" : {
        "ConnectionLost" : {
          "$ref" : "#/definitions/ConnectionLost"
        },
        "Accelerometer" : {
          "$ref" : "#/definitions/Accelerometer"
        },
        "Type" : {
          "type" : "string"
        },
        "Distance" : {
          "format" : "double",
          "type" : "number"
        },
        "OwnerId" : {
          "type" : "string"
        },
        "Odometer" : {
          "format" : "double",
          "type" : "number"
        },
        "Heading" : {
          "format" : "double",
          "type" : "number"
        },
        "Location" : {
          "$ref" : "#/definitions/Location"
        },
        "BatteryVoltage" : {
          "$ref" : "#/definitions/BatteryVoltage"
        },
        "EventType" : {
          "type" : "string"
        },
        "Acceleration" : {
          "$ref" : "#/definitions/Acceleration"
        },
        "TripId" : {
          "type" : "string"
        },
        "FuelLevel" : {
          "format" : "double",
          "type" : "number"
        },
        "Speed" : {
          "format" : "double",
          "type" : "number"
        },
        "Altitude" : {
          "$ref" : "#/definitions/Altitude"
        },
        "MojioId" : {
          "type" : "string"
        },
        "Time" : {
          "type" : "string"
        },
        "Deceleration" : {
          "$ref" : "#/definitions/Deceleration"
        },
        "_id" : {
          "type" : "string"
        },
        "TimeIsApprox" : {
          "$ref" : "#/definitions/TimeIsApprox"
        },
        "FuelEfficiency" : {
          "format" : "double",
          "type" : "number"
        },
        "VehicleId" : {
          "type" : "string"
        },
        "OdometerRollover" : {
          "$ref" : "#/definitions/OdometerRollover"
        },
        "RPM" : {
          "format" : "int32",
          "type" : "integer"
        },
        "_deleted" : {
          "type" : "boolean"
        }
      }
    },
    "OdometerRollover" : {
      "x-WM-FULLY_QUALIFIED_NAME" : "moj.OdometerRollover",
      "x-WM-TAGS" : [ "RestServiceVirtualController" ]
    },
    "Location" : {
      "x-WM-FULLY_QUALIFIED_NAME" : "moj.Location",
      "x-WM-TAGS" : [ "RestServiceVirtualController" ],
      "properties" : {
        "Lng" : {
          "format" : "double",
          "type" : "number"
        },
        "FromLockedGPS" : {
          "type" : "boolean"
        },
        "IsValid" : {
          "type" : "boolean"
        },
        "Lat" : {
          "format" : "double",
          "type" : "number"
        },
        "Dilution" : {
          "format" : "int32",
          "type" : "integer"
        }
      }
    },
    "BatteryVoltage" : {
      "x-WM-FULLY_QUALIFIED_NAME" : "moj.BatteryVoltage",
      "x-WM-TAGS" : [ "RestServiceVirtualController" ]
    },
    "Acceleration" : {
      "x-WM-FULLY_QUALIFIED_NAME" : "moj.Acceleration",
      "x-WM-TAGS" : [ "RestServiceVirtualController" ]
    }
  },
  "info" : {
    "x-WM-SERVICE_TYPE" : "RestService",
    "x-WM-PROXY-USERNAME" : "",
    "x-WM-API_ID" : "b8e700d8-9c6a-498c-9daa-7ecb8929bd71",
    "x-WM-PROXY-PORT" : "",
    "x-WM-USE_PROXY_FOR_WEB" : true,
    "x-WM-PROXY-HOSTNAME" : "",
    "x-WM-PROXY-PASSWORD" : "",
    "x-WM-SERVICE_ID" : "moj",
    "x-WM-PROXY-ENABLED" : "false",
    "x-WM-USE_PROXY_FOR_MOBILE" : true,
    "version" : "2.0"
  }
}