{
  "tags" : [ {
    "description" : "Rest service swagger documentation",
    "name" : "RestServiceVirtualController"
  } ],
  "basePath" : "/",
  "paths" : {
    "/mojCurrentUser/invoke/Users/Me" : {
      "x-WM-TAG" : "RestServiceVirtualController",
      "x-WM-BASE_PATH" : "/mojCurrentUser/invoke/Users/Me",
      "get" : {
        "x-WM-OPERATION_UID" : "9717ec08-cc5a-4be1-8c9e-be60ba1ffff5",
        "tags" : [ "RestServiceVirtualController" ],
        "x-WM-METHOD_NAME" : "invoke",
        "x-WM-ACCESS_SPECIFIER" : "APP_ONLY",
        "parameters" : [ {
          "x-WM-FULLY_QUALIFIED_TYPE" : "java.lang.String",
          "items" : {
            "type" : "string"
          },
          "description" : "MojioAPIToken",
          "name" : "MojioAPIToken",
          "x-WM-EDITABLE" : true,
          "type" : "array",
          "required" : false,
          "in" : "header"
        } ],
        "consumes" : [ "text/xml" ],
        "responses" : {
          "200" : {
            "schema" : {
              "$ref" : "#/definitions/RootResponse"
            },
            "description" : "Success"
          }
        },
        "operationId" : "mojCurrentUser_RestServiceVirtualController-invoke"
      },
      "x-WM-RELATIVE_PATH" : ""
    }
  },
  "host" : "api.moj.io",
  "schemes" : [ "https" ],
  "swagger" : "2.0",
  "definitions" : {
    "RootResponse" : {
      "x-WM-FULLY_QUALIFIED_NAME" : "mojCurrentUser.RootResponse",
      "x-WM-TAGS" : [ "RestServiceVirtualController" ],
      "properties" : {
        "Message" : {
          "type" : "string"
        }
      }
    }
  },
  "info" : {
    "x-WM-SERVICE_TYPE" : "RestService",
    "x-WM-PROXY-USERNAME" : "",
    "x-WM-API_ID" : "b23f50d0-c778-4fe9-80ed-89d795349e6b",
    "x-WM-PROXY-PORT" : "",
    "x-WM-USE_PROXY_FOR_WEB" : true,
    "x-WM-PROXY-HOSTNAME" : "",
    "x-WM-PROXY-PASSWORD" : "",
    "x-WM-SERVICE_ID" : "moj",
    "x-WM-PROXY-ENABLED" : "false",
    "x-WM-USE_PROXY_FOR_MOBILE" : true,
    "version" : "2.0"
  }
}