{
  "tags" : [ {
    "description" : "Rest service swagger documentation",
    "name" : "RestServiceVirtualController"
  } ],
  "basePath" : "/v1/Users/{UserId}/Trips",
  "paths" : {
    "" : {
      "x-WM-TAG" : "RestServiceVirtualController",
      "x-WM-BASE_PATH" : "",
      "get" : {
        "x-WM-OPERATION_UID" : "b88acb13-8a2b-4af9-a891-c156896fe8b1",
        "tags" : [ "RestServiceVirtualController" ],
        "x-WM-METHOD_NAME" : "invoke",
        "x-WM-ACCESS_SPECIFIER" : "APP_ONLY",
        "parameters" : [ {
          "x-WM-FULLY_QUALIFIED_TYPE" : "java.lang.String",
          "items" : {
            "type" : "string"
          },
          "description" : "MojioAPIToken",
          "name" : "MojioAPIToken",
          "x-WM-EDITABLE" : true,
          "type" : "array",
          "required" : false,
          "in" : "header"
        }, {
          "description" : "limit",
          "name" : "limit",
          "x-WM-EDITABLE" : false,
          "type" : "string",
          "required" : false,
          "in" : "query"
        }, {
          "description" : "desc",
          "name" : "desc",
          "x-WM-EDITABLE" : false,
          "type" : "string",
          "required" : false,
          "in" : "query"
        }, {
          "description" : "criteria",
          "name" : "criteria",
          "x-WM-EDITABLE" : false,
          "type" : "string",
          "required" : false,
          "in" : "query"
        }, {
          "description" : "sortBy",
          "name" : "sortBy",
          "x-WM-EDITABLE" : false,
          "type" : "string",
          "required" : false,
          "in" : "query"
        }, {
          "description" : "offset",
          "name" : "offset",
          "x-WM-EDITABLE" : false,
          "type" : "string",
          "required" : false,
          "in" : "query"
        }, {
          "name" : "UserId",
          "type" : "string",
          "required" : true,
          "in" : "path"
        } ],
        "consumes" : [ "text/xml" ],
        "responses" : {
          "200" : {
            "schema" : {
              "$ref" : "#/definitions/RootResponse"
            },
            "description" : "Success"
          }
        },
        "operationId" : "mojUserTrips_RestServiceVirtualController-invoke"
      },
      "x-WM-RELATIVE_PATH" : ""
    }
  },
  "host" : "api.moj.io",
  "schemes" : [ "https" ],
  "swagger" : "2.0",
  "definitions" : {
    "RootResponse" : {
      "x-WM-FULLY_QUALIFIED_NAME" : "mojUserTrips.RootResponse",
      "x-WM-TAGS" : [ "RestServiceVirtualController" ],
      "properties" : {
        "Data" : {
          "x-WM-IS_LIST" : true,
          "items" : {
            "$ref" : "#/definitions/DataEntryItem"
          },
          "uniqueItems" : false,
          "type" : "array"
        },
        "PageSize" : {
          "format" : "int32",
          "type" : "integer"
        },
        "Offset" : {
          "format" : "int32",
          "type" : "integer"
        },
        "TotalRows" : {
          "format" : "int32",
          "type" : "integer"
        }
      }
    },
    "EndLocation" : {
      "x-WM-FULLY_QUALIFIED_NAME" : "mojUserTrips.EndLocation",
      "x-WM-TAGS" : [ "RestServiceVirtualController" ],
      "properties" : {
        "Lng" : {
          "format" : "double",
          "type" : "number"
        },
        "FromLockedGPS" : {
          "type" : "boolean"
        },
        "IsValid" : {
          "type" : "boolean"
        },
        "Lat" : {
          "format" : "double",
          "type" : "number"
        },
        "Dilution" : {
          "format" : "int32",
          "type" : "integer"
        }
      }
    },
    "MaxAcceleration" : {
      "x-WM-FULLY_QUALIFIED_NAME" : "mojUserTrips.MaxAcceleration",
      "x-WM-TAGS" : [ "RestServiceVirtualController" ]
    },
    "LastKnownLocation" : {
      "x-WM-FULLY_QUALIFIED_NAME" : "mojUserTrips.LastKnownLocation",
      "x-WM-TAGS" : [ "RestServiceVirtualController" ],
      "properties" : {
        "Lng" : {
          "format" : "double",
          "type" : "number"
        },
        "FromLockedGPS" : {
          "type" : "boolean"
        },
        "IsValid" : {
          "type" : "boolean"
        },
        "Lat" : {
          "format" : "double",
          "type" : "number"
        },
        "Dilution" : {
          "format" : "int32",
          "type" : "integer"
        }
      }
    },
    "EndAddress" : {
      "x-WM-FULLY_QUALIFIED_NAME" : "mojUserTrips.EndAddress",
      "x-WM-TAGS" : [ "RestServiceVirtualController" ],
      "properties" : {
        "State" : {
          "type" : "string"
        },
        "Address2" : {
          "$ref" : "#/definitions/Address2"
        },
        "Address1" : {
          "type" : "string"
        },
        "Zip" : {
          "type" : "string"
        },
        "Country" : {
          "type" : "string"
        },
        "City" : {
          "type" : "string"
        }
      }
    },
    "MaxDeceleration" : {
      "x-WM-FULLY_QUALIFIED_NAME" : "mojUserTrips.MaxDeceleration",
      "x-WM-TAGS" : [ "RestServiceVirtualController" ]
    },
    "Address2" : {
      "x-WM-FULLY_QUALIFIED_NAME" : "mojUserTrips.Address2",
      "x-WM-TAGS" : [ "RestServiceVirtualController" ]
    },
    "StartOdometer" : {
      "x-WM-FULLY_QUALIFIED_NAME" : "mojUserTrips.StartOdometer",
      "x-WM-TAGS" : [ "RestServiceVirtualController" ]
    },
    "DataEntryItem" : {
      "x-WM-FULLY_QUALIFIED_NAME" : "mojUserTrips.DataEntryItem",
      "x-WM-TAGS" : [ "RestServiceVirtualController" ],
      "properties" : {
        "EndMilage" : {
          "format" : "double",
          "type" : "number"
        },
        "EndLocation" : {
          "$ref" : "#/definitions/EndLocation"
        },
        "MaxAcceleration" : {
          "$ref" : "#/definitions/MaxAcceleration"
        },
        "Distance" : {
          "format" : "double",
          "type" : "number"
        },
        "Type" : {
          "type" : "string"
        },
        "LastKnownLocation" : {
          "$ref" : "#/definitions/LastKnownLocation"
        },
        "StartMilage" : {
          "format" : "double",
          "type" : "number"
        },
        "EndAddress" : {
          "$ref" : "#/definitions/EndAddress"
        },
        "MaxDeceleration" : {
          "$ref" : "#/definitions/MaxDeceleration"
        },
        "FuelLevel" : {
          "format" : "double",
          "type" : "number"
        },
        "MojioId" : {
          "type" : "string"
        },
        "_id" : {
          "type" : "string"
        },
        "StartOdometer" : {
          "format" : "double",
          "type" : "number"
        },
        "TimeIsApprox" : {
          "type" : "boolean"
        },
        "MaxSpeed" : {
          "format" : "double",
          "type" : "number"
        },
        "FuelEfficiency" : {
          "format" : "double",
          "type" : "number"
        },
        "VehicleId" : {
          "type" : "string"
        },
        "MaxRPM" : {
          "format" : "int32",
          "type" : "integer"
        },
        "StartAddress" : {
          "$ref" : "#/definitions/StartAddress"
        },
        "ForcefullyEnded" : {
          "$ref" : "#/definitions/ForcefullyEnded"
        },
        "EndTime" : {
          "type" : "string"
        },
        "StartLocation" : {
          "$ref" : "#/definitions/StartLocation"
        },
        "StartTime" : {
          "type" : "string"
        },
        "_deleted" : {
          "type" : "boolean"
        },
        "LastUpdatedTime" : {
          "type" : "string"
        }
      }
    },
    "MaxRPM" : {
      "x-WM-FULLY_QUALIFIED_NAME" : "mojUserTrips.MaxRPM",
      "x-WM-TAGS" : [ "RestServiceVirtualController" ]
    },
    "StartAddress" : {
      "x-WM-FULLY_QUALIFIED_NAME" : "mojUserTrips.StartAddress",
      "x-WM-TAGS" : [ "RestServiceVirtualController" ],
      "properties" : {
        "State" : {
          "type" : "string"
        },
        "Address2" : {
          "$ref" : "#/definitions/Address2"
        },
        "Address1" : {
          "type" : "string"
        },
        "Zip" : {
          "type" : "string"
        },
        "Country" : {
          "type" : "string"
        },
        "City" : {
          "type" : "string"
        }
      }
    },
    "StartLocation" : {
      "x-WM-FULLY_QUALIFIED_NAME" : "mojUserTrips.StartLocation",
      "x-WM-TAGS" : [ "RestServiceVirtualController" ],
      "properties" : {
        "Lng" : {
          "format" : "double",
          "type" : "number"
        },
        "FromLockedGPS" : {
          "type" : "boolean"
        },
        "IsValid" : {
          "type" : "boolean"
        },
        "Lat" : {
          "format" : "double",
          "type" : "number"
        },
        "Dilution" : {
          "format" : "int32",
          "type" : "integer"
        }
      }
    },
    "ForcefullyEnded" : {
      "x-WM-FULLY_QUALIFIED_NAME" : "mojUserTrips.ForcefullyEnded",
      "x-WM-TAGS" : [ "RestServiceVirtualController" ]
    }
  },
  "info" : {
    "x-WM-SERVICE_TYPE" : "RestService",
    "x-WM-PROXY-USERNAME" : "",
    "x-WM-API_ID" : "5bc943a9-c9af-40ae-ad09-e1def2668c55",
    "x-WM-PROXY-PORT" : "",
    "x-WM-USE_PROXY_FOR_WEB" : true,
    "x-WM-PROXY-HOSTNAME" : "",
    "x-WM-PROXY-PASSWORD" : "",
    "x-WM-SERVICE_ID" : "moj",
    "x-WM-PROXY-ENABLED" : "false",
    "x-WM-USE_PROXY_FOR_MOBILE" : true,
    "version" : "2.0"
  }
}